{
    "accounts": [
        {
            "number": 12368,
            "meters":[
                {
                    "id": "x671",
                    "last_value": 12
                },
                {
                    "id": "j98",
                    "last_value": 981
                }
            ]
        },
        {
            "number": 98761,
            "meters":[
                {
                    "id": "p811",
                    "last_value": 4
                }
            ]
        },
        {
            "number": 88865,
            "meters":[
                {
                    "id": "d45",
                    "last_value": 0
                },
                {
                    "id": "p87",
                    "last_value": 0
                },
                {
                    "id": "p121",
                    "last_value": 160
                }
            ]
        }
    ],
    "results": [
        {
            "id": "p28",
            "value": 788,
            "date": "2019-01-01"
        }
    ]
}